{
  "$schema": "https://themost-framework.github.io/themost/models/2018/2/schema.json",
  "@id": "https://universis.io/schemas/AcademicYear",
  "name": "SubjectArea",
  "type": "lookup",
  "title": "Subject area",
  "abstract": false,
  "implements": "Enumeration",
  "category": "lookup",
  "version": "1.0",
  "fields": [
    {
      "name": "id",
      "title": "Id",
      "type": "Counter",
      "nullable": false,
      "primary": true
    },
    {
      "name": "locales",
      "type": "SubjectAreaLocale",
      "mapping": {
        "associationType": "association",
        "cascade": "delete",
        "parentModel": "SubjectArea",
        "parentField": "id",
        "childModel": "SubjectAreaLocale",
        "childField": "object"
      }
    },
    {
      "name": "locale",
      "type": "SubjectAreaLocale",
      "readonly": true,
      "editable": false,
      "many": true,
      "expandable": true,
      "multiplicity": "ZeroOrOne",
      "mapping": {
        "associationType": "association",
        "cascade": "delete",
        "parentModel": "SubjectArea",
        "parentField": "id",
        "childModel": "SubjectAreaLocale",
        "childField": "object",
        "options": {
          "$filter": "inLanguage eq lang()",
          "$first": true
        }
      }
    },
    {
      "name": "abbreviation",
      "title": "Abbreviation",
      "type": "Text",
      "nullable": true,
      "size": 20
    }
  ],
  "privileges": [
    {
      "mask": 1,
      "type": "global",
      "account": "*"
    },
    {
      "mask": 15,
      "type": "global"
    },
    {
      "mask": 15,
      "type": "global",
      "account": "Administrators"
    }
  ],
  "constraints": [
    {
      "type": "unique",
      "description": "Name must be unique across different records",
      "fields": [
        "name"
      ]
    }
  ],
  "eventListeners": [
    {
      "type": "./listeners/data-localization"
    }
  ],
  "seed": [
    {
      "name": "Ανθρωπιστικές Σπουδές και Τέχνες",
      "locale": {
        "name": "Humanitarian Studies and arts"
      }
    },
    {
      "name": "Επιστήμες Αγωγής και Εκπαίδευσης",
      "locale": {
        "name": "Education and Training Sciences"
      }
    },
    {
      "name": "Επιστήμες Ζωής και Υγείας",
      "locale": {
        "name": "Life and Health Sciences"
      }
    },
    {
      "name": "Επιστήμες Περιβάλλοντος",
      "locale": {
        "name": "Environmental Sciences"
      }
    },
    {
      "name": "Θετικές Επιστήμες, Επιστήμες Μηχανικής και Τεχνολογίας",
      "locale": {
        "name": "Engineering Sciences and Technology"
      }
    },
    {
      "name": "Κοινωνικές, Πολιτικές και Οικονομικές Επιστήμες",
      "locale": {
        "name": "Social, Political and Economic Sciences"
      }
    }
  ]
}
