{
  "$schema": "https://themost-framework.github.io/themost/models/2018/2/schema.json",
  "@id": "https://themost.io/schemas/TradeAction",
  "name": "TradeAction",
  "description": "The act of participating in an exchange of goods and services for monetary compensation.",
  "title": "TradeAction",
  "abstract": false,
  "sealed": false,
  "inherits": "Action",
  "version": "1.0",
  "fields": [
    {
      "name": "id",
      "title": "Id",
      "type": "Counter",
      "nullable": false,
      "primary": true
    },
    {
      "name": "price",
      "type": "Number"
    },
    {
      "name": "priceCurrency",
      "type": "Text"
    },
    {
      "name": "installments",
      "type": "Number"
    },
    {
      "@id": "http://schema.org/owner",
      "name": "owner",
      "title": "Owner",
      "description": "The owner of the action e.g. a user who request something.",
      "type": "User",
      "value": "javascript:return this.model.context.model('Student').where('id').equal(typeof this.target.student === 'object' ? this.target.student.id : this.target.student).select('user').silent().value();"
    }
  ],
  "privileges": [
    {
      "mask": 1,
      "type": "global",
      "account": "*"
    },
    {
      "mask": 15,
      "type": "global"
    },
    {
      "mask": 15,
      "type": "global",
      "account": "Administrators"
    }
  ],
  "constraints": [
  ],
  "eventListeners": [
  ]
}